[gd_scene load_steps=8 format=3 uid="uid://c7qme0ew73u5t"]

[ext_resource type="PackedScene" path="res://level/level.tscn" id="1_alsub"]
[ext_resource type="PackedScene" uid="uid://dp1yrfu65mhie" path="res://modules/input/thermo_input.tscn" id="2_d5g45"]
[ext_resource type="PackedScene" uid="uid://bbxom1pdufj1a" path="res://modules/output/heater_output.tscn" id="3_hlcqy"]
[ext_resource type="PackedScene" uid="uid://c2nvffe7l462w" path="res://modules/output/fan_output.tscn" id="4_01br8"]
[ext_resource type="PackedScene" uid="uid://cu620urdvuaeh" path="res://modules/nothing_2.tscn" id="4_gq0gm"]

[sub_resource type="Animation" id="Animation_x8wmq"]
resource_name = "Level"
length = 7.0
step = 0.25
tracks/0/type = "method"
tracks/0/imported = false
tracks/0/enabled = true
tracks/0/path = NodePath("Center/Grid/ThermoInput")
tracks/0/interp = 1
tracks/0/loop_wrap = true
tracks/0/keys = {
"times": PackedFloat32Array(0, 1, 1.5, 2, 2.5, 3, 3.5, 4, 5, 5.5, 6),
"transitions": PackedFloat32Array(1, 1, 1, 1, 1, 1, 1, 1, 1, 1, 1),
"values": [{
"args": [20],
"method": &"set_celsius"
}, {
"args": [-5],
"method": &"set_celsius"
}, {
"args": [-7],
"method": &"set_celsius"
}, {
"args": [10],
"method": &"set_celsius"
}, {
"args": [15],
"method": &"set_celsius"
}, {
"args": [42],
"method": &"set_celsius"
}, {
"args": [20],
"method": &"set_celsius"
}, {
"args": [0],
"method": &"set_celsius"
}, {
"args": [-20],
"method": &"set_celsius"
}, {
"args": [0],
"method": &"set_celsius"
}, {
"args": [-9],
"method": &"set_celsius"
}]
}
tracks/1/type = "value"
tracks/1/imported = false
tracks/1/enabled = true
tracks/1/path = NodePath("Center/Grid/FanOutput:min_requirement")
tracks/1/interp = 1
tracks/1/loop_wrap = true
tracks/1/keys = {
"times": PackedFloat32Array(0, 1, 2, 4),
"transitions": PackedFloat32Array(1, 1, 1, 1),
"update": 1,
"values": [127, 0, 127, 0]
}
tracks/2/type = "value"
tracks/2/imported = false
tracks/2/enabled = true
tracks/2/path = NodePath("Center/Grid/FanOutput:max_requirement")
tracks/2/interp = 1
tracks/2/loop_wrap = true
tracks/2/keys = {
"times": PackedFloat32Array(0, 1, 2, 4),
"transitions": PackedFloat32Array(1, 1, 1, 1),
"update": 1,
"values": [255, 0, 255, 0]
}
tracks/3/type = "value"
tracks/3/imported = false
tracks/3/enabled = true
tracks/3/path = NodePath("Center/Grid/HeaterOutput:min_requirement")
tracks/3/interp = 1
tracks/3/loop_wrap = true
tracks/3/keys = {
"times": PackedFloat32Array(0, 1, 2, 5, 5.5, 6),
"transitions": PackedFloat32Array(1, 1, 1, 1, 1, 1),
"update": 1,
"values": [0, 127, 0, 127, 0, 127]
}
tracks/4/type = "value"
tracks/4/imported = false
tracks/4/enabled = true
tracks/4/path = NodePath("Center/Grid/HeaterOutput:max_requirement")
tracks/4/interp = 1
tracks/4/loop_wrap = true
tracks/4/keys = {
"times": PackedFloat32Array(0, 1, 2, 5, 5.5, 6),
"transitions": PackedFloat32Array(1, 1, 1, 1, 1, 1),
"update": 1,
"values": [0, 255, 0, 255, 0, 255]
}
tracks/5/type = "method"
tracks/5/imported = false
tracks/5/enabled = true
tracks/5/path = NodePath(".")
tracks/5/interp = 1
tracks/5/loop_wrap = true
tracks/5/keys = {
"times": PackedFloat32Array(0.75, 1.25, 1.75, 2.25, 2.75, 3.25, 3.75, 4.75, 5.25, 5.75, 6.25, 6.75),
"transitions": PackedFloat32Array(1, 1, 1, 1, 1, 1, 1, 1, 1, 1, 1, 1),
"values": [{
"args": [],
"method": &"test_outputs"
}, {
"args": [],
"method": &"test_outputs"
}, {
"args": [],
"method": &"test_outputs"
}, {
"args": [],
"method": &"test_outputs"
}, {
"args": [],
"method": &"test_outputs"
}, {
"args": [],
"method": &"test_outputs"
}, {
"args": [],
"method": &"test_outputs"
}, {
"args": [],
"method": &"test_outputs"
}, {
"args": [],
"method": &"test_outputs"
}, {
"args": [],
"method": &"test_outputs"
}, {
"args": [],
"method": &"test_outputs"
}, {
"args": [],
"method": &"test_outputs"
}]
}

[sub_resource type="AnimationLibrary" id="AnimationLibrary_fw5yt"]
_data = {
"Level": SubResource("Animation_x8wmq")
}

[node name="Level3" instance=ExtResource("1_alsub")]
text = "If temp. (0): (0°C = 52)
< 0°C -> fan (0) min. 50%
> 0°C -> heater (1) min. 50%"

[node name="ThermoInput" parent="Center/Grid" index="0" instance=ExtResource("2_d5g45")]
layout_mode = 2

[node name="Nothing_2" parent="Center/Grid" index="1" instance=ExtResource("4_gq0gm")]
layout_mode = 2

[node name="FanOutput" parent="Center/Grid" index="2" instance=ExtResource("4_01br8")]
layout_mode = 2
max_requirement = 0

[node name="HeaterOutput" parent="Center/Grid" index="3" instance=ExtResource("3_hlcqy")]
layout_mode = 2
min_requirement = 127
output = 1

[node name="AnimationPlayer" parent="." index="1"]
libraries = {
"": SubResource("AnimationLibrary_fw5yt")
}

[connection signal="animation_finished" from="AnimationPlayer" to="." method="_on_animation_player_animation_finished"]
