[gd_scene load_steps=3 format=3 uid="uid://cu620urdvuaeh"]

[ext_resource type="PackedScene" uid="uid://d1gtyv3hgyf3h" path="res://modules/module.tscn" id="1_js1qm"]
[ext_resource type="Texture2D" uid="uid://d2p1or20nqf5g" path="res://modules/empty_2.png" id="2_gn3v6"]

[node name="Nothing_2" instance=ExtResource("1_js1qm")]

[node name="Visual" parent="." index="0"]
texture = ExtResource("2_gn3v6")
