[gd_scene load_steps=3 format=3 uid="uid://cj34m2bmh5bnb"]

[ext_resource type="Theme" uid="uid://bvxq0g32bmfll" path="res://theme.theme" id="1_3dfl2"]
[ext_resource type="Script" path="res://instructions.gd" id="2_2wj16"]

[node name="Credits" type="RichTextLabel"]
anchors_preset = 15
anchor_right = 1.0
anchor_bottom = 1.0
grow_horizontal = 2
grow_vertical = 2
theme = ExtResource("1_3dfl2")
theme_override_constants/line_separation = 4
bbcode_enabled = true
text = "
[center]
[url=https://whiteshampoo.itch.io/code53]Code53[/url]:
a game by
Benedikt Wicklein
for the [url=https://itch.io/jam/godot-wild-jam-53]Godot Wild Jam #53[/url]

Idea, Programming and Art:
[url=https://whiteshampoo.itch.io/]Benedikt Wicklein[/url]

Font:
[url=https://www.dafont.com/de/modern-dos.font]Modern DOS Font by Jayvee Enaguas[/url]

Tools:
[url=https://godotengine.org/]Godot Game Engine[/url]
[url=https://www.gimp.org/]Gimp[/url]
[url=https://notepad-plus-plus.org/]Notepad++[/url]
[url=https://gitlab.com/]GitLab[/url] ([url=https://gitlab.com/whiteshampoo/gwj53]repo[/url])

Highly inspired by:
[url=https://www.zachtronics.com/]Zachtronics Games[/url]
[/center]"
script = ExtResource("2_2wj16")

[node name="Back" type="Button" parent="."]
layout_mode = 0
offset_left = 440.0
offset_top = 3.0
offset_right = 477.0
offset_bottom = 16.0
text = "BACK"

[connection signal="meta_clicked" from="." to="." method="_on_meta_clicked"]
[connection signal="pressed" from="Back" to="." method="_on_back_pressed"]
