[gd_scene load_steps=5 format=3 uid="uid://bkv18a1rkkge6"]

[ext_resource type="Script" path="res://modules/input/digital_input.gd" id="1_d2p76"]
[ext_resource type="PackedScene" uid="uid://d1gtyv3hgyf3h" path="res://modules/module.tscn" id="1_mfyha"]
[ext_resource type="Texture2D" uid="uid://cccsmpdlc2b30" path="res://modules/input/digital_input.png" id="2_jvmq2"]

[sub_resource type="AtlasTexture" id="AtlasTexture_nq5ib"]
resource_local_to_scene = true
atlas = ExtResource("2_jvmq2")
region = Rect2(0, 0, 48, 48)

[node name="DigitalInput" instance=ExtResource("1_mfyha")]
script = ExtResource("1_d2p76")

[node name="Visual" parent="." index="0"]
texture = SubResource("AtlasTexture_nq5ib")
