[gd_scene load_steps=4 format=3 uid="uid://dp1yrfu65mhie"]

[ext_resource type="PackedScene" uid="uid://d1gtyv3hgyf3h" path="res://modules/module.tscn" id="1_mfyha"]
[ext_resource type="Script" path="res://modules/input/thermo_input.gd" id="1_tlb1b"]
[ext_resource type="Texture2D" uid="uid://dmej2frhj6xer" path="res://modules/input/thermo.png" id="2_8rdvt"]

[node name="ThermoInput" instance=ExtResource("1_mfyha")]
script = ExtResource("1_tlb1b")
celsius = 0

[node name="Fluid" type="ColorRect" parent="." index="0"]
custom_minimum_size = Vector2(0, 9.78824)
layout_mode = 1
anchors_preset = 12
anchor_top = 1.0
anchor_right = 1.0
anchor_bottom = 1.0
offset_top = -9.78823
grow_horizontal = 2
grow_vertical = 0
color = Color(0.666, 0.666, 0.666, 1)

[node name="Visual" parent="." index="1"]
offset_left = -24.0
offset_top = -24.0
offset_right = 24.0
offset_bottom = 24.0
texture = ExtResource("2_8rdvt")
stretch_mode = 0
