[gd_scene load_steps=5 format=3 uid="uid://7urttmguyeuf"]

[ext_resource type="Shader" path="res://color_modes/Shader.gdshader" id="1_5d7ni"]
[ext_resource type="Script" path="res://color_modes/Shader.gd" id="2_oss2t"]
[ext_resource type="Texture2D" uid="uid://7t0ex3un2cux" path="res://mouse/arrow.png" id="3_htrlt"]

[sub_resource type="ShaderMaterial" id="ShaderMaterial_6pilb"]
shader = ExtResource("1_5d7ni")
shader_parameter/color_0 = null
shader_parameter/color_1 = null
shader_parameter/color_2 = null
shader_parameter/color_3 = null

[node name="Overlay" type="ColorRect"]
z_index = 4096
z_as_relative = false
material = SubResource("ShaderMaterial_6pilb")
anchors_preset = 15
anchor_right = 1.0
anchor_bottom = 1.0
grow_horizontal = 2
grow_vertical = 2
mouse_filter = 1
color = Color(1, 0, 1, 1)
script = ExtResource("2_oss2t")

[node name="Arrow" type="Sprite2D" parent="."]
z_index = -1
texture_filter = 1
position = Vector2(14, 13)
texture = ExtResource("3_htrlt")
centered = false
offset = Vector2(4, 0)
