[gd_scene load_steps=6 format=3 uid="uid://c2nvffe7l462w"]

[ext_resource type="PackedScene" uid="uid://bmo0l1q10626x" path="res://modules/output/output_template.tscn" id="1_k0r4e"]
[ext_resource type="Script" path="res://modules/output/fan_output.gd" id="1_o7qfx"]
[ext_resource type="Texture2D" uid="uid://d12bk0pkw03b3" path="res://modules/output/fan.png" id="2_6brhu"]

[sub_resource type="AtlasTexture" id="AtlasTexture_ahx2h"]
atlas = ExtResource("2_6brhu")
region = Rect2(48, 0, 48, 48)

[sub_resource type="AtlasTexture" id="AtlasTexture_5k8a2"]
atlas = ExtResource("2_6brhu")
region = Rect2(0, 0, 48, 48)

[node name="FanOutput" instance=ExtResource("1_k0r4e")]
script = ExtResource("1_o7qfx")
output_name = "Fan"

[node name="Blades" type="TextureRect" parent="." index="0"]
layout_mode = 1
anchors_preset = 15
anchor_right = 1.0
anchor_bottom = 1.0
grow_horizontal = 2
grow_vertical = 2
pivot_offset = Vector2(24, 24)
texture = SubResource("AtlasTexture_ahx2h")

[node name="Visual" parent="." index="1"]
texture = SubResource("AtlasTexture_5k8a2")

[node name="Indicator" parent="." index="2"]
offset_left = 1.0
offset_top = 1.0
offset_right = 8.0
offset_bottom = 8.0
