[gd_scene load_steps=5 format=3 uid="uid://b8vxcqaltkaop"]

[ext_resource type="Script" path="res://modules/output/screen.gd" id="1_h5lkp"]

[sub_resource type="StyleBoxFlat" id="StyleBoxFlat_go4n3"]
bg_color = Color(0, 0, 0, 1)
border_width_left = 1
border_width_top = 1
border_width_right = 1
border_width_bottom = 1
expand_margin_left = 2.0
expand_margin_top = 2.0
expand_margin_right = 2.0
expand_margin_bottom = 2.0

[sub_resource type="FastNoiseLite" id="FastNoiseLite_1yabi"]

[sub_resource type="NoiseTexture2D" id="NoiseTexture2D_ow2w7"]
width = 16
height = 16
noise = SubResource("FastNoiseLite_1yabi")

[node name="Screen" type="ColorRect"]
texture_filter = 1
anchors_preset = 15
anchor_right = 1.0
anchor_bottom = 1.0
grow_horizontal = 2
grow_vertical = 2
color = Color(0, 0, 0, 1)
script = ExtResource("1_h5lkp")

[node name="Panel" type="Panel" parent="."]
custom_minimum_size = Vector2(48, 48)
layout_mode = 1
anchors_preset = 8
anchor_left = 0.5
anchor_top = 0.5
anchor_right = 0.5
anchor_bottom = 0.5
offset_left = -20.0
offset_top = -20.0
offset_right = 20.0
offset_bottom = 20.0
grow_horizontal = 2
grow_vertical = 2
theme_override_styles/panel = SubResource("StyleBoxFlat_go4n3")

[node name="TextureRect" type="TextureRect" parent="."]
custom_minimum_size = Vector2(48, 48)
layout_mode = 1
anchors_preset = 8
anchor_left = 0.5
anchor_top = 0.5
anchor_right = 0.5
anchor_bottom = 0.5
grow_horizontal = 2
grow_vertical = 2
texture = SubResource("NoiseTexture2D_ow2w7")
expand_mode = 1
stretch_mode = 4
