[gd_scene load_steps=9 format=3 uid="uid://b6snaaenq4po7"]

[ext_resource type="PackedScene" uid="uid://co8gc7rijsvra" path="res://Menu/popup_menu.tscn" id="1_plyx2"]
[ext_resource type="Script" path="res://Menu/color.gd" id="2_s4kpv"]
[ext_resource type="Resource" uid="uid://bbt1sumd2sha8" path="res://color_modes/CGA1Light.tres" id="3_h1f7b"]
[ext_resource type="Resource" uid="uid://dkbqhj3n435e2" path="res://color_modes/CGA1Dark.tres" id="4_mqtp2"]
[ext_resource type="Resource" uid="uid://bncpda2ec6x7c" path="res://color_modes/CGA2Light.tres" id="5_sjaoj"]
[ext_resource type="Resource" uid="uid://c66qils44fcma" path="res://color_modes/CGA2Dark.tres" id="6_6dp8e"]
[ext_resource type="Resource" uid="uid://ef7kb2jbjeee" path="res://color_modes/gameboy.tres" id="7_rc4nq"]
[ext_resource type="Resource" uid="uid://pq6cp5cb66lp" path="res://color_modes/gray.tres" id="8_owecc"]

[node name="Color" instance=ExtResource("1_plyx2")]
script = ExtResource("2_s4kpv")
colors = [ExtResource("3_h1f7b"), ExtResource("4_mqtp2"), ExtResource("5_sjaoj"), ExtResource("6_6dp8e"), ExtResource("7_rc4nq"), ExtResource("8_owecc")]

[connection signal="index_pressed" from="." to="." method="_on_index_pressed"]
