[gd_scene load_steps=3 format=3 uid="uid://ktcla6ldjmao"]

[ext_resource type="PackedScene" uid="uid://co8gc7rijsvra" path="res://Menu/popup_menu.tscn" id="1_albiu"]
[ext_resource type="Script" path="res://Menu/help.gd" id="2_0rtj6"]

[node name="Help" instance=ExtResource("1_albiu")]
size = Vector2i(121, 100)
item_count = 2
item_0/text = "Instructions"
item_0/id = 0
item_1/text = "Credits"
item_1/id = 1
script = ExtResource("2_0rtj6")

[connection signal="index_pressed" from="." to="." method="_on_index_pressed"]
